Frequency (cm^1) IR Intensity (km/mol)

52.5265        	0.6579         
55.4203        	0.0214         
55.8368        	0.3469         
65.0115        	0.0412         
70.8126        	0.0002         
75.8112        	0.1317         
100.9349       	0.1308         
108.0065       	0              
115.1356       	0.0233         
120.8485       	0.0878         
121.2203       	0.2427         
129.7785       	0.1823         
137.7261       	0.0033         
138.1757       	0.1047         
138.5274       	0.0274         
145.9708       	1.7208         
155.0431       	2.4875         
162.8051       	0.0004         
168.3825       	1.7106         
168.7331       	2.8861         
172.6682       	1.4773         
174.5892       	0.0496         
178.3187       	2.1783         
180.686        	0.552          
189.6929       	0.0087         
197.289        	0.1519         
197.6159       	0.0587         
210.596        	0.3617         
219.3355       	0.1295         
223.5819       	2.063          
232.1302       	0.3362         
240.3108       	0.3154         
250.7109       	0.2257         
252.6323       	0.0048         
252.732        	0.0008         
293.9553       	0.3939         
296.9046       	0.0001         
323.0449       	1.115          
332.9925       	12.9127        
339.7955       	0.0132         
350.1017       	0.0071         
353.8876       	0.0304         
439.2576       	2.1436         
479.5853       	21.5268        
500.9599       	0              
549.7677       	40.2648        
558.6459       	21.1842        
560.2047       	45.8774        
577.1376       	0.0001         
698.7944       	2.3902         
816.0734       	23.6217        
1098.4836      	0.001          
1313.9853      	22.1089        
2089.6869      	89.9597        
2093.1005      	24.0835        
3461.2513      	101.6332       
3461.5648      	237.8168       
